{
  "device_01": [
    {
      "voltage": "4.6",
      "flow_rate": "259",
      "battery_capacity": "60",
      "charging_source": "battery"
    },
    {
      "voltage": "2.3",
      "flow_rate": "251",
      "battery_capacity": "60",
      "charging_source": "battery"
    }
  ],
  "relay": [
    {
      "relay_status": "on"
    }
  ],
  "arduino": [
    {
      "arduino_status": "on"
    }
  ]
}